<svg x="0px" y="0px" width="30px" height="auto" viewBox="0 0 165 110.94" style="enable-background:new 0 0 165 110.94;" xml:space="preserve">
<path class="st0" d="M158.764,83.223l-16.002,16.002l-2.933,2.933l-2.933,2.933h16.759c6.051,0,10.975-4.986,10.975-11.116V77.357
	l-2.933,2.933L158.764,83.223z"/>
<polygon class="st0" points="164.419,68.358 152.532,56.292 120.683,87.268 106.684,73.991 94.786,85.886 120.914,111.01 
	120.981,110.94 120.981,110.94 "/>
<path fill="none" d="M128.337,8.444c-2.713,0-5.227,0.78-7.426,2.041c-2.176-1.17-4.622-1.898-7.262-1.898
	c-8.514,0-15.439,6.925-15.439,15.439s6.925,15.439,15.439,15.439c3.033,0,5.845-0.909,8.236-2.429
	c1.962,0.941,4.135,1.51,6.453,1.51c8.3,0,15.052-6.752,15.052-15.052S136.637,8.444,128.337,8.444z"/>
<path fill="none" d="M153.658,0H11.273C5.222,0,0,5.032,0,11.162v82.81C0,100.102,5.222,105,11.273,105h93.049l-2.933-2.889
	L98.456,99.2l-9.509-9.498c-2.291-2.291-2.291-5.998,0-8.289l13.415-13.413c1.147-1.147,2.646-1.717,4.147-1.717
	s3.003,0.573,4.147,1.719l9.952,9.952l28.218-28.218c1.1-1.1,2.593-1.719,4.147-1.719s3.047,0.619,4.147,1.719l1.64,1.64
	l3.119,2.933L165,57.243v-46.08C165,5.032,159.708,0,153.658,0z M70,90H15v-8h55V90z M70,74H15v-8h55V74z M128.337,38.548
	c-2.317,0-4.49-0.569-6.453-1.51c-2.39,1.519-5.203,2.429-8.236,2.429c-8.514,0-15.439-6.925-15.439-15.439
	s6.925-15.439,15.439-15.439c2.64,0,5.086,0.727,7.262,1.898c2.2-1.261,4.713-2.041,7.426-2.041c8.3,0,15.052,6.752,15.052,15.052
	S136.637,38.548,128.337,38.548z"/>
</svg>
